﻿{
    "positionX": 300,
    "positionY": 200,
    "scaleX": 250,
    "scaleY": 300,
    "fontSize": 14,
    "colorNote": "#FFFF00",
    "colorFont": "#000000",
    "isBold": false,
    "isItalic": false
}